{
  "content": [
    {
      "icao24": "06a0ba",
      "registration": "A7-BCV",
      "model": "787 8",
      "operator": "Qatar Airways",
      "country": "Qatar"
    },
    {
      "icao24": "06a0bb",
      "registration": "A7-BCW",
      "model": "Boeing 787 8",
      "operator": "Qatar Airways",
      "country": "Qatar"
    },
    {
      "icao24": "06a0bc",
      "registration": "A7-BCX",
      "model": "787 8",
      "operator": "Qatar Airways",
      "country": "Qatar"
    },
    {
      "icao24": "06a0bd",
      "registration": "A7-BCY",
      "model": "787 8",
      "operator": "Qatar Airways",
      "country": "Qatar"
    },
    {
      "icao24": "06a0be",
      "registration": "A7-BCZ",
      "model": "Boeing 787 8",
      "operator": "",
      "country": "Qatar"
    },
    {
      "icao24": "06a0bf",
      "registration": "A7-BDA",
      "model": "787 8",
      "operator": "",
      "country": "Qatar"
    },
    {
      "icao24": "06a0c0",
      "registration": "A7-BDB",
      "model": "787-8 Dreamliner",
      "operator": "Qatar Airways",
      "country": "Qatar"
    },
    {
      "icao24": "06a0c1",
      "registration": "A7-BDC",
      "model": "787 8",
      "operator": "Qatar Airways",
      "country": "Qatar"
    },
    {
      "icao24": "06a0c2",
      "registration": "A7-BDD",
      "model": "787 8",
      "operator": "Qatar Airways",
      "country": "Qatar"
    },
    {
      "icao24": "0d0795",
      "registration": "TP-01",
      "model": "787 8 BBJ",
      "operator": "",
      "country": "Mexico"
    },
    {
      "icao24": "1533b9",
      "registration": "RF-78777",
      "model": "IL-76 MD",
      "operator": "",
      "country": "Russian Federation"
    },
    {
      "icao24": "1533ba",
      "registration": "RF-78778",
      "model": "IL-76 MD",
      "operator": "",
      "country": "Russian Federation"
    },
    {
      "icao24": "1533cd",
      "registration": "RF-78797",
      "model": "IL-76 MD",
      "operator": "",
      "country": "Russian Federation"
    },
    {
      "icao24": "1533c6",
      "registration": "RF-78790",
      "model": "IL-76 MD",
      "operator": "",
      "country": "Russian Federation"
    },
    {
      "icao24": "1533c7",
      "registration": "RF-78791",
      "model": "IL-76 MD",
      "operator": "",
      "country": "Russian Federation"
    },
    {
      "icao24": "1533cb",
      "registration": "RF-78795",
      "model": "IL-76 MD",
      "operator": "",
      "country": "Russian Federation"
    },
    {
      "icao24": "1533cc",
      "registration": "RA-78796",
      "model": "Ilyushin IL-76 MD",
      "operator": "",
      "country": "Russian Federation"
    },
    {
      "icao24": "345251",
      "registration": "EC-MLT",
      "model": "787 8",
      "operator": "",
      "country": "Spain"
    },
    {
      "icao24": "34530c",
      "registration": "EC-MNS",
      "model": "787 8",
      "operator": "",
      "country": "Spain"
    },
    {
      "icao24": "345352",
      "registration": "EC-MPE",
      "model": "787 8",
      "operator": "",
      "country": "Spain"
    },
    {
      "icao24": "3a2e21",
      "registration": "F-OLRB",
      "model": "787 8",
      "operator": "",
      "country": "France"
    },
    {
      "icao24": "3a2e22",
      "registration": "F-OLRC",
      "model": "787 8",
      "operator": "",
      "country": "France"
    },
    {
      "icao24": "3d8fb6",
      "registration": "D-GARE",
      "model": "PA-34 200T Seneca II",
      "operator": "",
      "country": "Germany"
    },
    {
      "icao24": "040046",
      "registration": "ET-AOP",
      "model": "787 8",
      "operator": "Ethiopian Airlines",
      "country": "Ethiopia"
    },
    {
      "icao24": "040047",
      "registration": "ET-AOQ",
      "model": "787 8",
      "operator": "Ethiopian Airlines",
      "country": "Ethiopia"
    }
  ],
  "last": false,
  "totalPages": 40,
  "totalElements": 983,
  "first": false,
  "numberOfElements": 25,
  "sort": null,
  "size": 25,
  "number": 1
}