{
  "content": [
    {
      "icao24": "780fd9",
      "registration": "B-7877",
      "model": "787 9",
      "operator": "",
      "country": "China"
    },
    {
      "icao24": "780fda",
      "registration": "B-7878",
      "model": "787 9",
      "operator": "",
      "country": "China"
    },
    {
      "icao24": "780fdb",
      "registration": "B-7879",
      "model": "787 9",
      "operator": "",
      "country": "China"
    },
    {
      "icao24": "a560f3",
      "registration": "N446AM",
      "model": "787-9",
      "operator": "Aeroméxico",
      "country": "United States"
    },
    {
      "icao24": "06a0a5",
      "registration": "A7-BCA",
      "model": "787 8",
      "operator": "Qatar Airways",
      "country": "Qatar"
    },
    {
      "icao24": "06a0a6",
      "registration": "A7-BCB",
      "model": "787 8",
      "operator": "Qatar Airways",
      "country": "Qatar"
    },
    {
      "icao24": "06a0a7",
      "registration": "A7-BCC",
      "model": "787-8 Dreamliner",
      "operator": "Qatar Airways",
      "country": "Qatar"
    },
    {
      "icao24": "06a0a8",
      "registration": "A7-BCD",
      "model": "787 8",
      "operator": "",
      "country": "Qatar"
    },
    {
      "icao24": "06a0a9",
      "registration": "A7-BCE",
      "model": "787 8",
      "operator": "Qatar Airways",
      "country": "Qatar"
    },
    {
      "icao24": "06a0aa",
      "registration": "A7-BCF",
      "model": "787 8",
      "operator": "",
      "country": "Qatar"
    },
    {
      "icao24": "06a0ab",
      "registration": "A7-BCG",
      "model": "787 8",
      "operator": "Qatar Airways",
      "country": "Qatar"
    },
    {
      "icao24": "06a0ac",
      "registration": "A7-BCH",
      "model": "787 8",
      "operator": "",
      "country": "Qatar"
    },
    {
      "icao24": "06a0ad",
      "registration": "A7-BCI",
      "model": "787 8",
      "operator": "Qatar Airways",
      "country": "Qatar"
    },
    {
      "icao24": "06a0ae",
      "registration": "A7-BCJ",
      "model": "Boeing 787 8",
      "operator": "Qatar Airways",
      "country": "Qatar"
    },
    {
      "icao24": "06a0af",
      "registration": "A7-BCK",
      "model": "787 8",
      "operator": "",
      "country": "Qatar"
    },
    {
      "icao24": "06a0b0",
      "registration": "A7-BCL",
      "model": "787 8",
      "operator": "Qatar Airways",
      "country": "Qatar"
    },
    {
      "icao24": "06a0b1",
      "registration": "A7-BCM",
      "model": "Boeing 787 8",
      "operator": "Qatar Airways",
      "country": "Qatar"
    },
    {
      "icao24": "06a0b2",
      "registration": "A7-BCN",
      "model": "787 8",
      "operator": "",
      "country": "Qatar"
    },
    {
      "icao24": "06a0b3",
      "registration": "A7-BCO",
      "model": "787 8",
      "operator": "Qatar Airways",
      "country": "Qatar"
    },
    {
      "icao24": "06a0b4",
      "registration": "A7-BCP",
      "model": "787 8",
      "operator": "",
      "country": "Qatar"
    },
    {
      "icao24": "06a0b5",
      "registration": "A7-BCQ",
      "model": "787 8",
      "operator": "Qatar Airways",
      "country": "Qatar"
    },
    {
      "icao24": "06a0b6",
      "registration": "A7-BCR",
      "model": "787 8",
      "operator": "Qatar Airways",
      "country": "Qatar"
    },
    {
      "icao24": "06a0b7",
      "registration": "A7-BCS",
      "model": "787 8",
      "operator": "",
      "country": "Qatar"
    },
    {
      "icao24": "06a0b8",
      "registration": "A7-BCT",
      "model": "787 8",
      "operator": "Qatar Airways",
      "country": "Qatar"
    },
    {
      "icao24": "06a0b9",
      "registration": "A7-BCU",
      "model": "787 8",
      "operator": "",
      "country": "Qatar"
    }
  ],
  "last": false,
  "totalPages": 40,
  "totalElements": 983,
  "first": true,
  "numberOfElements": 25,
  "sort": null,
  "size": 25,
  "number": 0
}